%YAML 1.1
%TAG !u! tag:unity3d.com,2011:
--- !u!1 &7088701860613735720
GameObject:
  m_ObjectHideFlags: 0
  m_CorrespondingSourceObject: {fileID: 0}
  m_PrefabInstance: {fileID: 0}
  m_PrefabAsset: {fileID: 0}
  serializedVersion: 6
  m_Component:
  - component: {fileID: 8235797306335312799}
  - component: {fileID: 3871169268992869738}
  m_Layer: 0
  m_Name: Donut
  m_TagString: Untagged
  m_Icon: {fileID: 0}
  m_NavMeshLayer: 0
  m_StaticEditorFlags: 0
  m_IsActive: 1
--- !u!4 &8235797306335312799
Transform:
  m_ObjectHideFlags: 0
  m_CorrespondingSourceObject: {fileID: 0}
  m_PrefabInstance: {fileID: 0}
  m_PrefabAsset: {fileID: 0}
  m_GameObject: {fileID: 7088701860613735720}
  m_LocalRotation: {x: 0, y: 0, z: 0, w: 1}
  m_LocalPosition: {x: 200.02518, y: -6.386718, z: -2054.6443}
  m_LocalScale: {x: 1, y: 1, z: 1}
  m_Children: []
  m_Father: {fileID: 0}
  m_RootOrder: 0
  m_LocalEulerAnglesHint: {x: 0, y: 0, z: 0}
--- !u!114 &3871169268992869738
MonoBehaviour:
  m_ObjectHideFlags: 0
  m_CorrespondingSourceObject: {fileID: 0}
  m_PrefabInstance: {fileID: 0}
  m_PrefabAsset: {fileID: 0}
  m_GameObject: {fileID: 7088701860613735720}
  m_Enabled: 1
  m_EditorHideFlags: 0
  m_Script: {fileID: 11500000, guid: 684c5adeeb1cf31489eaac71af94112c, type: 3}
  m_Name: 
  m_EditorClassIdentifier: 
  RoomLayout: []
  Walls: []
  Floors: []
  Doors: []
  MinRoomSize: {x: 7, y: 7}
  MaxRoomSize: {x: 15, y: 15}
  RoomWidth: 1
  RoomHeight: 1
