%YAML 1.1
%TAG !u! tag:unity3d.com,2011:
--- !u!1 &933171290265021222
GameObject:
  m_ObjectHideFlags: 0
  m_CorrespondingSourceObject: {fileID: 0}
  m_PrefabInstance: {fileID: 0}
  m_PrefabAsset: {fileID: 0}
  serializedVersion: 6
  m_Component:
  - component: {fileID: 1646772449902008731}
  - component: {fileID: 6987401346377213026}
  m_Layer: 0
  m_Name: SacrificeChamber
  m_TagString: Untagged
  m_Icon: {fileID: 0}
  m_NavMeshLayer: 0
  m_StaticEditorFlags: 0
  m_IsActive: 1
--- !u!4 &1646772449902008731
Transform:
  m_ObjectHideFlags: 0
  m_CorrespondingSourceObject: {fileID: 0}
  m_PrefabInstance: {fileID: 0}
  m_PrefabAsset: {fileID: 0}
  m_GameObject: {fileID: 933171290265021222}
  m_LocalRotation: {x: 0, y: 0, z: 0, w: 1}
  m_LocalPosition: {x: -1.0157609, y: -0.32657906, z: -3.8391461}
  m_LocalScale: {x: 1, y: 1, z: 1}
  m_Children: []
  m_Father: {fileID: 0}
  m_RootOrder: 0
  m_LocalEulerAnglesHint: {x: 0, y: 0, z: 0}
--- !u!114 &6987401346377213026
MonoBehaviour:
  m_ObjectHideFlags: 0
  m_CorrespondingSourceObject: {fileID: 0}
  m_PrefabInstance: {fileID: 0}
  m_PrefabAsset: {fileID: 0}
  m_GameObject: {fileID: 933171290265021222}
  m_Enabled: 1
  m_EditorHideFlags: 0
  m_Script: {fileID: 11500000, guid: c5c19fe98a046a443b2dc4e62d1e9df8, type: 3}
  m_Name: 
  m_EditorClassIdentifier: 
  SetPieces:
  - {fileID: 11400000, guid: 3a64aa6514741a84f8b2717bbea74d2a, type: 2}
  SetPiecesSpawnAmount:
  - {x: 5, y: 6}
  spawnRatio: 0.25
  PentragramPieces:
  - {fileID: 11400000, guid: a00e6e6f4dc32964e849ad4ced11a4ce, type: 2}
  - {fileID: 11400000, guid: 854769a88909ca44c897b612ca432d61, type: 2}
  - {fileID: 11400000, guid: b4b5ed6f1fdda834ea54e89ed379a1fe, type: 2}
  - {fileID: 11400000, guid: 5ccc6129a8c5da84690b9fa2d932bc7a, type: 2}
  - {fileID: 11400000, guid: 348036ab23231bf4fb039ef7e8d33803, type: 2}
  - {fileID: 11400000, guid: b4e4ada8c7aa2c447b3829afa3976884, type: 2}
  - {fileID: 11400000, guid: 166c60ccedaf8f749975b3c14e476ce2, type: 2}
  - {fileID: 11400000, guid: 33b221e844fe6a74b8c873a09fa712b5, type: 2}
  - {fileID: 11400000, guid: aba6324c3ef26f24a914353e0cc653e3, type: 2}
  Candles: {fileID: 11400000, guid: 391dc323842db4e42b9a512890c1b949, type: 2}
