%YAML 1.1
%TAG !u! tag:unity3d.com,2011:
--- !u!1 &6708011401027651935
GameObject:
  m_ObjectHideFlags: 0
  m_CorrespondingSourceObject: {fileID: 0}
  m_PrefabInstance: {fileID: 0}
  m_PrefabAsset: {fileID: 0}
  serializedVersion: 6
  m_Component:
  - component: {fileID: 3799006179317965753}
  - component: {fileID: 1843038024574494669}
  m_Layer: 0
  m_Name: BlackSmith
  m_TagString: Untagged
  m_Icon: {fileID: 0}
  m_NavMeshLayer: 0
  m_StaticEditorFlags: 0
  m_IsActive: 1
--- !u!4 &3799006179317965753
Transform:
  m_ObjectHideFlags: 0
  m_CorrespondingSourceObject: {fileID: 0}
  m_PrefabInstance: {fileID: 0}
  m_PrefabAsset: {fileID: 0}
  m_GameObject: {fileID: 6708011401027651935}
  m_LocalRotation: {x: 0, y: 0, z: 0, w: 1}
  m_LocalPosition: {x: 200.02518, y: -6.386718, z: -2054.6443}
  m_LocalScale: {x: 1, y: 1, z: 1}
  m_Children: []
  m_Father: {fileID: 0}
  m_RootOrder: 0
  m_LocalEulerAnglesHint: {x: 0, y: 0, z: 0}
--- !u!114 &1843038024574494669
MonoBehaviour:
  m_ObjectHideFlags: 0
  m_CorrespondingSourceObject: {fileID: 0}
  m_PrefabInstance: {fileID: 0}
  m_PrefabAsset: {fileID: 0}
  m_GameObject: {fileID: 6708011401027651935}
  m_Enabled: 1
  m_EditorHideFlags: 0
  m_Script: {fileID: 11500000, guid: 366f8f0f0b0f9f94187c529cf5805b0b, type: 3}
  m_Name: 
  m_EditorClassIdentifier: 
  SetPieces:
  - {fileID: 11400000, guid: 19715155d5398e745b3b01987f0f3188, type: 2}
  - {fileID: 11400000, guid: 092ecf677db215145a8b647eab36131b, type: 2}
  - {fileID: 11400000, guid: 1df18f1d045438d49ab30d12b92d6e99, type: 2}
  - {fileID: 11400000, guid: 7310281624f5bc748835c841f744f3ce, type: 2}
  - {fileID: 11400000, guid: ebad42f2c1160f04495aa17a33eac559, type: 2}
  - {fileID: 11400000, guid: 86f42db3dc61b4e41b116da1294de7fc, type: 2}
  SetPiecesSpawnAmount:
  - {x: 1, y: 1}
  - {x: 1, y: 3}
  - {x: 1, y: 1}
  - {x: 1, y: 1}
  - {x: 1, y: 3}
  - {x: 1, y: 1}
  spawnRatio: 0.4
