%YAML 1.1
%TAG !u! tag:unity3d.com,2011:
--- !u!1 &3326599155753199872
GameObject:
  m_ObjectHideFlags: 0
  m_CorrespondingSourceObject: {fileID: 0}
  m_PrefabInstance: {fileID: 0}
  m_PrefabAsset: {fileID: 0}
  serializedVersion: 6
  m_Component:
  - component: {fileID: 1642785019000602811}
  - component: {fileID: 2749666972314757862}
  m_Layer: 0
  m_Name: Crypt
  m_TagString: Untagged
  m_Icon: {fileID: 0}
  m_NavMeshLayer: 0
  m_StaticEditorFlags: 0
  m_IsActive: 1
--- !u!4 &1642785019000602811
Transform:
  m_ObjectHideFlags: 0
  m_CorrespondingSourceObject: {fileID: 0}
  m_PrefabInstance: {fileID: 0}
  m_PrefabAsset: {fileID: 0}
  m_GameObject: {fileID: 3326599155753199872}
  m_LocalRotation: {x: 0, y: 0, z: 0, w: 1}
  m_LocalPosition: {x: 0, y: 0, z: 0}
  m_LocalScale: {x: 1, y: 1, z: 1}
  m_Children: []
  m_Father: {fileID: 0}
  m_RootOrder: 0
  m_LocalEulerAnglesHint: {x: 0, y: 0, z: 0}
--- !u!114 &2749666972314757862
MonoBehaviour:
  m_ObjectHideFlags: 0
  m_CorrespondingSourceObject: {fileID: 0}
  m_PrefabInstance: {fileID: 0}
  m_PrefabAsset: {fileID: 0}
  m_GameObject: {fileID: 3326599155753199872}
  m_Enabled: 1
  m_EditorHideFlags: 0
  m_Script: {fileID: 11500000, guid: 61431fad508f3af448d9a7f7e9fcad4a, type: 3}
  m_Name: 
  m_EditorClassIdentifier: 
  SetPieces:
  - {fileID: 11400000, guid: 6ca5e345aa96cdd4d8a688d8f3082521, type: 2}
  - {fileID: 11400000, guid: 40114938a8c7b8746b682cc49ce41287, type: 2}
  - {fileID: 11400000, guid: e9663c5150dcc2e448d45fc73b95de2b, type: 2}
  - {fileID: 11400000, guid: f1a55c0bd5726574c926601461e84b83, type: 2}
  - {fileID: 11400000, guid: 412f1df24d4269c40b1546633ecef834, type: 2}
  - {fileID: 11400000, guid: ad81222f7ac4893489f316c35178334c, type: 2}
  - {fileID: 11400000, guid: ae77979ac6c72644cae1bafdafe8efe7, type: 2}
  - {fileID: 11400000, guid: d4e6b6219765bac41a0faf0104c149e2, type: 2}
  SetPiecesSpawnAmount:
  - {x: 4, y: 6}
  - {x: 0, y: 3}
  - {x: 4, y: 6}
  - {x: 0, y: 3}
  - {x: 0, y: 3}
  - {x: 0, y: 3}
  - {x: 0, y: 3}
  - {x: 0, y: 3}
  spawnRatio: 0.25
