%YAML 1.1
%TAG !u! tag:unity3d.com,2011:
--- !u!1 &3263555978394306798
GameObject:
  m_ObjectHideFlags: 0
  m_CorrespondingSourceObject: {fileID: 0}
  m_PrefabInstance: {fileID: 0}
  m_PrefabAsset: {fileID: 0}
  serializedVersion: 6
  m_Component:
  - component: {fileID: 4837596337343280002}
  - component: {fileID: 608464363294934533}
  m_Layer: 0
  m_Name: Lake
  m_TagString: Untagged
  m_Icon: {fileID: 0}
  m_NavMeshLayer: 0
  m_StaticEditorFlags: 0
  m_IsActive: 1
--- !u!4 &4837596337343280002
Transform:
  m_ObjectHideFlags: 0
  m_CorrespondingSourceObject: {fileID: 0}
  m_PrefabInstance: {fileID: 0}
  m_PrefabAsset: {fileID: 0}
  m_GameObject: {fileID: 3263555978394306798}
  m_LocalRotation: {x: 0, y: 0, z: 0, w: 1}
  m_LocalPosition: {x: 0, y: 0, z: 0}
  m_LocalScale: {x: 1, y: 1, z: 1}
  m_Children: []
  m_Father: {fileID: 0}
  m_RootOrder: 0
  m_LocalEulerAnglesHint: {x: 0, y: 0, z: 0}
--- !u!114 &608464363294934533
MonoBehaviour:
  m_ObjectHideFlags: 0
  m_CorrespondingSourceObject: {fileID: 0}
  m_PrefabInstance: {fileID: 0}
  m_PrefabAsset: {fileID: 0}
  m_GameObject: {fileID: 3263555978394306798}
  m_Enabled: 1
  m_EditorHideFlags: 0
  m_Script: {fileID: 11500000, guid: 675afedc49df0bf4eaab8254c51856b9, type: 3}
  m_Name: 
  m_EditorClassIdentifier: 
  SetPieces:
  - {fileID: 11400000, guid: 6e7f9ea36d8fffd48a3581aef8c0a474, type: 2}
  - {fileID: 11400000, guid: 5f5adc888d283c149876d472baf25ba5, type: 2}
  - {fileID: 11400000, guid: 149e37b9ba97af14abb0aae950a18525, type: 2}
  - {fileID: 11400000, guid: 0ad83b9d42d8caf4cb4d096465f255eb, type: 2}
  - {fileID: 11400000, guid: b48e37a866307fd49ac1cfc9c23e9d37, type: 2}
  - {fileID: 11400000, guid: e46ebd1bf697a4a4784071f3b3be78ef, type: 2}
  - {fileID: 11400000, guid: 661adbe9d763c4a448658f9a0292bc04, type: 2}
  SetPiecesSpawnAmount:
  - {x: 4, y: 6}
  - {x: 0, y: 2}
  - {x: 0, y: 2}
  - {x: 1, y: 3}
  - {x: 0, y: 2}
  - {x: 0, y: 2}
  - {x: 4, y: 6}
  spawnRatio: 0.25
  DeepWater: {fileID: 11400000, guid: 149e37b9ba97af14abb0aae950a18525, type: 2}
  ShallowWater: {fileID: 11400000, guid: aa368a7f1dbdfa948b6a19458a4c93ba, type: 2}
  Sand: {fileID: 11400000, guid: f54b27fbbbdb6524db445e7c7289679a, type: 2}
