%YAML 1.1
%TAG !u! tag:unity3d.com,2011:
--- !u!29 &1
OcclusionCullingSettings:
  m_ObjectHideFlags: 0
  serializedVersion: 2
  m_OcclusionBakeSettings:
    smallestOccluder: 5
    smallestHole: 0.25
    backfaceThreshold: 100
  m_SceneGUID: 00000000000000000000000000000000
  m_OcclusionCullingData: {fileID: 0}
--- !u!104 &2
RenderSettings:
  m_ObjectHideFlags: 0
  serializedVersion: 9
  m_Fog: 0
  m_FogColor: {r: 0.5, g: 0.5, b: 0.5, a: 1}
  m_FogMode: 3
  m_FogDensity: 0.01
  m_LinearFogStart: 0
  m_LinearFogEnd: 300
  m_AmbientSkyColor: {r: 0.212, g: 0.227, b: 0.259, a: 1}
  m_AmbientEquatorColor: {r: 0.114, g: 0.125, b: 0.133, a: 1}
  m_AmbientGroundColor: {r: 0.047, g: 0.043, b: 0.035, a: 1}
  m_AmbientIntensity: 1
  m_AmbientMode: 3
  m_SubtractiveShadowColor: {r: 0.42, g: 0.478, b: 0.627, a: 1}
  m_SkyboxMaterial: {fileID: 0}
  m_HaloStrength: 0.5
  m_FlareStrength: 1
  m_FlareFadeSpeed: 3
  m_HaloTexture: {fileID: 0}
  m_SpotCookie: {fileID: 10001, guid: 0000000000000000e000000000000000, type: 0}
  m_DefaultReflectionMode: 0
  m_DefaultReflectionResolution: 128
  m_ReflectionBounces: 1
  m_ReflectionIntensity: 1
  m_CustomReflection: {fileID: 0}
  m_Sun: {fileID: 0}
  m_IndirectSpecularColor: {r: 0, g: 0, b: 0, a: 1}
  m_UseRadianceAmbientProbe: 0
--- !u!157 &3
LightmapSettings:
  m_ObjectHideFlags: 0
  serializedVersion: 11
  m_GIWorkflowMode: 1
  m_GISettings:
    serializedVersion: 2
    m_BounceScale: 1
    m_IndirectOutputScale: 1
    m_AlbedoBoost: 1
    m_EnvironmentLightingMode: 0
    m_EnableBakedLightmaps: 0
    m_EnableRealtimeLightmaps: 0
  m_LightmapEditorSettings:
    serializedVersion: 12
    m_Resolution: 2
    m_BakeResolution: 40
    m_AtlasSize: 1024
    m_AO: 0
    m_AOMaxDistance: 1
    m_CompAOExponent: 1
    m_CompAOExponentDirect: 0
    m_ExtractAmbientOcclusion: 0
    m_Padding: 2
    m_LightmapParameters: {fileID: 0}
    m_LightmapsBakeMode: 1
    m_TextureCompression: 1
    m_FinalGather: 0
    m_FinalGatherFiltering: 1
    m_FinalGatherRayCount: 256
    m_ReflectionCompression: 2
    m_MixedBakeMode: 2
    m_BakeBackend: 0
    m_PVRSampling: 1
    m_PVRDirectSampleCount: 32
    m_PVRSampleCount: 500
    m_PVRBounces: 2
    m_PVREnvironmentSampleCount: 500
    m_PVREnvironmentReferencePointCount: 2048
    m_PVRFilteringMode: 2
    m_PVRDenoiserTypeDirect: 0
    m_PVRDenoiserTypeIndirect: 0
    m_PVRDenoiserTypeAO: 0
    m_PVRFilterTypeDirect: 0
    m_PVRFilterTypeIndirect: 0
    m_PVRFilterTypeAO: 0
    m_PVREnvironmentMIS: 0
    m_PVRCulling: 1
    m_PVRFilteringGaussRadiusDirect: 1
    m_PVRFilteringGaussRadiusIndirect: 5
    m_PVRFilteringGaussRadiusAO: 2
    m_PVRFilteringAtrousPositionSigmaDirect: 0.5
    m_PVRFilteringAtrousPositionSigmaIndirect: 2
    m_PVRFilteringAtrousPositionSigmaAO: 1
    m_ExportTrainingData: 0
    m_TrainingDataDestination: TrainingData
  m_LightingDataAsset: {fileID: 0}
  m_UseShadowmask: 1
--- !u!196 &4
NavMeshSettings:
  serializedVersion: 2
  m_ObjectHideFlags: 0
  m_BuildSettings:
    serializedVersion: 2
    agentTypeID: 0
    agentRadius: 0.5
    agentHeight: 2
    agentSlope: 45
    agentClimb: 0.4
    ledgeDropHeight: 0
    maxJumpAcrossDistance: 0
    minRegionArea: 2
    manualCellSize: 0
    cellSize: 0.16666667
    manualTileSize: 0
    tileSize: 256
    accuratePlacement: 0
    debug:
      m_Flags: 0
  m_NavMeshData: {fileID: 0}
--- !u!1839735485 &1583556261 stripped
Tilemap:
  m_CorrespondingSourceObject: {fileID: 1171929969841021004, guid: ecda8f8e1edec9f48bcf0f7163d8b11b,
    type: 3}
  m_PrefabInstance: {fileID: 1175553283276220183}
  m_PrefabAsset: {fileID: 0}
--- !u!1001 &1175553283276220183
PrefabInstance:
  m_ObjectHideFlags: 0
  serializedVersion: 2
  m_Modification:
    m_TransformParent: {fileID: 0}
    m_Modifications:
    - target: {fileID: 8590516771170242696, guid: ecda8f8e1edec9f48bcf0f7163d8b11b,
        type: 3}
      propertyPath: m_Name
      value: GameManager
      objectReference: {fileID: 0}
    - target: {fileID: 1919086855399806008, guid: ecda8f8e1edec9f48bcf0f7163d8b11b,
        type: 3}
      propertyPath: m_LocalPosition.x
      value: 0
      objectReference: {fileID: 0}
    - target: {fileID: 1919086855399806008, guid: ecda8f8e1edec9f48bcf0f7163d8b11b,
        type: 3}
      propertyPath: m_LocalPosition.y
      value: 0
      objectReference: {fileID: 0}
    - target: {fileID: 1919086855399806008, guid: ecda8f8e1edec9f48bcf0f7163d8b11b,
        type: 3}
      propertyPath: m_LocalPosition.z
      value: 0
      objectReference: {fileID: 0}
    - target: {fileID: 1919086855399806008, guid: ecda8f8e1edec9f48bcf0f7163d8b11b,
        type: 3}
      propertyPath: m_LocalRotation.x
      value: 0
      objectReference: {fileID: 0}
    - target: {fileID: 1919086855399806008, guid: ecda8f8e1edec9f48bcf0f7163d8b11b,
        type: 3}
      propertyPath: m_LocalRotation.y
      value: 0
      objectReference: {fileID: 0}
    - target: {fileID: 1919086855399806008, guid: ecda8f8e1edec9f48bcf0f7163d8b11b,
        type: 3}
      propertyPath: m_LocalRotation.z
      value: 0
      objectReference: {fileID: 0}
    - target: {fileID: 1919086855399806008, guid: ecda8f8e1edec9f48bcf0f7163d8b11b,
        type: 3}
      propertyPath: m_LocalRotation.w
      value: 1
      objectReference: {fileID: 0}
    - target: {fileID: 1919086855399806008, guid: ecda8f8e1edec9f48bcf0f7163d8b11b,
        type: 3}
      propertyPath: m_RootOrder
      value: 0
      objectReference: {fileID: 0}
    - target: {fileID: 1919086855399806008, guid: ecda8f8e1edec9f48bcf0f7163d8b11b,
        type: 3}
      propertyPath: m_LocalEulerAnglesHint.x
      value: 0
      objectReference: {fileID: 0}
    - target: {fileID: 1919086855399806008, guid: ecda8f8e1edec9f48bcf0f7163d8b11b,
        type: 3}
      propertyPath: m_LocalEulerAnglesHint.y
      value: 0
      objectReference: {fileID: 0}
    - target: {fileID: 1919086855399806008, guid: ecda8f8e1edec9f48bcf0f7163d8b11b,
        type: 3}
      propertyPath: m_LocalEulerAnglesHint.z
      value: 0
      objectReference: {fileID: 0}
    - target: {fileID: 1175553284001862324, guid: ecda8f8e1edec9f48bcf0f7163d8b11b,
        type: 3}
      propertyPath: m_LocalPosition.z
      value: 0
      objectReference: {fileID: 0}
    - target: {fileID: 2895226378376954585, guid: ecda8f8e1edec9f48bcf0f7163d8b11b,
        type: 3}
      propertyPath: m_IsActive
      value: 0
      objectReference: {fileID: 0}
    - target: {fileID: 1175553284492084692, guid: ecda8f8e1edec9f48bcf0f7163d8b11b,
        type: 3}
      propertyPath: RoomBlueprints.Array.size
      value: 9
      objectReference: {fileID: 0}
    - target: {fileID: 1175553284492084692, guid: ecda8f8e1edec9f48bcf0f7163d8b11b,
        type: 3}
      propertyPath: RoomShapes.Array.size
      value: 9
      objectReference: {fileID: 0}
    - target: {fileID: 1175553284492084692, guid: ecda8f8e1edec9f48bcf0f7163d8b11b,
        type: 3}
      propertyPath: RoomTypes.Array.size
      value: 22
      objectReference: {fileID: 0}
    - target: {fileID: 1175553284492084692, guid: ecda8f8e1edec9f48bcf0f7163d8b11b,
        type: 3}
      propertyPath: DungeonSize.x
      value: 75
      objectReference: {fileID: 0}
    - target: {fileID: 1175553284492084692, guid: ecda8f8e1edec9f48bcf0f7163d8b11b,
        type: 3}
      propertyPath: DungeonSize.y
      value: 75
      objectReference: {fileID: 0}
    - target: {fileID: 1175553284492084692, guid: ecda8f8e1edec9f48bcf0f7163d8b11b,
        type: 3}
      propertyPath: Origin.x
      value: -34
      objectReference: {fileID: 0}
    - target: {fileID: 1175553284492084692, guid: ecda8f8e1edec9f48bcf0f7163d8b11b,
        type: 3}
      propertyPath: Origin.y
      value: -34
      objectReference: {fileID: 0}
    - target: {fileID: 1175553284492084692, guid: ecda8f8e1edec9f48bcf0f7163d8b11b,
        type: 3}
      propertyPath: StairsBlueprint
      value: 
      objectReference: {fileID: 11400000, guid: 1c42c2f180e41cb49bdb291c23473bde,
        type: 2}
    - target: {fileID: 1175553284492084692, guid: ecda8f8e1edec9f48bcf0f7163d8b11b,
        type: 3}
      propertyPath: RandomSeed
      value: 0
      objectReference: {fileID: 0}
    - target: {fileID: 1175553284492084692, guid: ecda8f8e1edec9f48bcf0f7163d8b11b,
        type: 3}
      propertyPath: seed
      value: 0
      objectReference: {fileID: 0}
    - target: {fileID: 1175553284492084692, guid: ecda8f8e1edec9f48bcf0f7163d8b11b,
        type: 3}
      propertyPath: RoomBlueprints.Array.data[1]
      value: 
      objectReference: {fileID: 884296960170994365, guid: 095a088264b638344ba611d28b0df239,
        type: 3}
    - target: {fileID: 1175553284492084692, guid: ecda8f8e1edec9f48bcf0f7163d8b11b,
        type: 3}
      propertyPath: RoomBlueprints.Array.data[0]
      value: 
      objectReference: {fileID: 6618041324498604624, guid: bccc5bec3b5db524aba9c042cff1edbe,
        type: 3}
    - target: {fileID: 1175553284492084692, guid: ecda8f8e1edec9f48bcf0f7163d8b11b,
        type: 3}
      propertyPath: RoomBlueprints.Array.data[2]
      value: 
      objectReference: {fileID: 3871169268992869738, guid: c615e0ca109c87946a2a29ca078ea4cf,
        type: 3}
    - target: {fileID: 1175553284492084692, guid: ecda8f8e1edec9f48bcf0f7163d8b11b,
        type: 3}
      propertyPath: Attempts
      value: 1000
      objectReference: {fileID: 0}
    - target: {fileID: 1175553284492084692, guid: ecda8f8e1edec9f48bcf0f7163d8b11b,
        type: 3}
      propertyPath: RoomBlueprints.Array.data[3]
      value: 
      objectReference: {fileID: 4650733283263731724, guid: cfb6c423daf7ece43b46abae88b2467f,
        type: 3}
    - target: {fileID: 1175553284492084692, guid: ecda8f8e1edec9f48bcf0f7163d8b11b,
        type: 3}
      propertyPath: RoomBlueprints.Array.data[4]
      value: 
      objectReference: {fileID: 4546393065800759175, guid: 4c89a5acc219b8742a18a6ea227136ab,
        type: 3}
    - target: {fileID: 1175553284492084692, guid: ecda8f8e1edec9f48bcf0f7163d8b11b,
        type: 3}
      propertyPath: RoomBlueprints.Array.data[5]
      value: 
      objectReference: {fileID: 2794364578893762971, guid: df5c7bdbd82e75249ae08af910e1c40f,
        type: 3}
    - target: {fileID: 1175553284492084692, guid: ecda8f8e1edec9f48bcf0f7163d8b11b,
        type: 3}
      propertyPath: RoomBlueprints.Array.data[6]
      value: 
      objectReference: {fileID: 540560160390099459, guid: e413d6faa4fbd20428b3e48c335bcfb5,
        type: 3}
    - target: {fileID: 1175553284492084692, guid: ecda8f8e1edec9f48bcf0f7163d8b11b,
        type: 3}
      propertyPath: RoomBlueprints.Array.data[7]
      value: 
      objectReference: {fileID: 7266239529053653019, guid: 791eb7598d1fc794db6433df5f9fed21,
        type: 3}
    - target: {fileID: 1175553284492084692, guid: ecda8f8e1edec9f48bcf0f7163d8b11b,
        type: 3}
      propertyPath: RoomBlueprints.Array.data[8]
      value: 
      objectReference: {fileID: 411295429793655266, guid: fd630bc6556246d4a8879c4d4c9da1ee,
        type: 3}
    - target: {fileID: 1175553284492084692, guid: ecda8f8e1edec9f48bcf0f7163d8b11b,
        type: 3}
      propertyPath: RoomShapes.Array.data[0]
      value: 
      objectReference: {fileID: 6618041324498604624, guid: bccc5bec3b5db524aba9c042cff1edbe,
        type: 3}
    - target: {fileID: 1175553284492084692, guid: ecda8f8e1edec9f48bcf0f7163d8b11b,
        type: 3}
      propertyPath: RoomShapes.Array.data[1]
      value: 
      objectReference: {fileID: 884296960170994365, guid: 095a088264b638344ba611d28b0df239,
        type: 3}
    - target: {fileID: 1175553284492084692, guid: ecda8f8e1edec9f48bcf0f7163d8b11b,
        type: 3}
      propertyPath: RoomShapes.Array.data[2]
      value: 
      objectReference: {fileID: 3871169268992869738, guid: c615e0ca109c87946a2a29ca078ea4cf,
        type: 3}
    - target: {fileID: 1175553284492084692, guid: ecda8f8e1edec9f48bcf0f7163d8b11b,
        type: 3}
      propertyPath: RoomShapes.Array.data[3]
      value: 
      objectReference: {fileID: 4650733283263731724, guid: cfb6c423daf7ece43b46abae88b2467f,
        type: 3}
    - target: {fileID: 1175553284492084692, guid: ecda8f8e1edec9f48bcf0f7163d8b11b,
        type: 3}
      propertyPath: RoomShapes.Array.data[4]
      value: 
      objectReference: {fileID: 4546393065800759175, guid: 4c89a5acc219b8742a18a6ea227136ab,
        type: 3}
    - target: {fileID: 1175553284492084692, guid: ecda8f8e1edec9f48bcf0f7163d8b11b,
        type: 3}
      propertyPath: RoomShapes.Array.data[5]
      value: 
      objectReference: {fileID: 2794364578893762971, guid: df5c7bdbd82e75249ae08af910e1c40f,
        type: 3}
    - target: {fileID: 1175553284492084692, guid: ecda8f8e1edec9f48bcf0f7163d8b11b,
        type: 3}
      propertyPath: RoomShapes.Array.data[6]
      value: 
      objectReference: {fileID: 540560160390099459, guid: e413d6faa4fbd20428b3e48c335bcfb5,
        type: 3}
    - target: {fileID: 1175553284492084692, guid: ecda8f8e1edec9f48bcf0f7163d8b11b,
        type: 3}
      propertyPath: RoomShapes.Array.data[7]
      value: 
      objectReference: {fileID: 7266239529053653019, guid: 791eb7598d1fc794db6433df5f9fed21,
        type: 3}
    - target: {fileID: 1175553284492084692, guid: ecda8f8e1edec9f48bcf0f7163d8b11b,
        type: 3}
      propertyPath: RoomShapes.Array.data[8]
      value: 
      objectReference: {fileID: 411295429793655266, guid: fd630bc6556246d4a8879c4d4c9da1ee,
        type: 3}
    - target: {fileID: 1175553284492084692, guid: ecda8f8e1edec9f48bcf0f7163d8b11b,
        type: 3}
      propertyPath: DownStairsBlueprint
      value: 
      objectReference: {fileID: 11400000, guid: 459081da58b1d844686414be7a80d986,
        type: 2}
    - target: {fileID: 1175553284492084692, guid: ecda8f8e1edec9f48bcf0f7163d8b11b,
        type: 3}
      propertyPath: UpStairsBlueprint
      value: 
      objectReference: {fileID: 11400000, guid: 1c42c2f180e41cb49bdb291c23473bde,
        type: 2}
    - target: {fileID: 1175553284492084692, guid: ecda8f8e1edec9f48bcf0f7163d8b11b,
        type: 3}
      propertyPath: RoomTypes.Array.data[1]
      value: 
      objectReference: {fileID: 8523723315822458803, guid: 9ec47bba7fe1bbd44b65f3edb78aa39c,
        type: 3}
    - target: {fileID: 1175553284492084692, guid: ecda8f8e1edec9f48bcf0f7163d8b11b,
        type: 3}
      propertyPath: RoomTypes.Array.data[2]
      value: 
      objectReference: {fileID: 2749666972314757862, guid: 786c640f48465284992b8c712a23aab3,
        type: 3}
    - target: {fileID: 1175553284492084692, guid: ecda8f8e1edec9f48bcf0f7163d8b11b,
        type: 3}
      propertyPath: RoomTypes.Array.data[0]
      value: 
      objectReference: {fileID: 6987401346377213026, guid: 3f92ee7e6eb2fa0408948f7a38939162,
        type: 3}
    - target: {fileID: 1175553284492084692, guid: ecda8f8e1edec9f48bcf0f7163d8b11b,
        type: 3}
      propertyPath: RoomTypes.Array.data[3]
      value: 
      objectReference: {fileID: -3961336947352709774, guid: d23e9477ecbb6e048b655d6e8e9d6fce,
        type: 3}
    - target: {fileID: 1175553284492084692, guid: ecda8f8e1edec9f48bcf0f7163d8b11b,
        type: 3}
      propertyPath: RoomTypes.Array.data[4]
      value: 
      objectReference: {fileID: 1612524548419285315, guid: 430cc20377eebdc44a9233edd88b0a4a,
        type: 3}
    - target: {fileID: 1175553284492084692, guid: ecda8f8e1edec9f48bcf0f7163d8b11b,
        type: 3}
      propertyPath: RoomTypes.Array.data[5]
      value: 
      objectReference: {fileID: -7712914414997122099, guid: dfee99f5abb219c4795aa0eb2b5f41e8,
        type: 3}
    - target: {fileID: 1175553284492084692, guid: ecda8f8e1edec9f48bcf0f7163d8b11b,
        type: 3}
      propertyPath: RoomTypes.Array.data[6]
      value: 
      objectReference: {fileID: 8145529986700255782, guid: 96dbf80e1784d164b8a50fd01364b810,
        type: 3}
    - target: {fileID: 1175553284492084692, guid: ecda8f8e1edec9f48bcf0f7163d8b11b,
        type: 3}
      propertyPath: RoomTypes.Array.data[7]
      value: 
      objectReference: {fileID: 5328960053098937147, guid: 9672489ed09d3af4c9829763336f80a6,
        type: 3}
    - target: {fileID: 1175553284492084692, guid: ecda8f8e1edec9f48bcf0f7163d8b11b,
        type: 3}
      propertyPath: RoomTypes.Array.data[8]
      value: 
      objectReference: {fileID: 608464363294934533, guid: d71a51e9d1e3b7541b7de1e6a67ed831,
        type: 3}
    - target: {fileID: 1175553284492084692, guid: ecda8f8e1edec9f48bcf0f7163d8b11b,
        type: 3}
      propertyPath: RoomTypes.Array.data[9]
      value: 
      objectReference: {fileID: 5920384417817668, guid: acc00bef135dec74c9281bb7d57d9cbc,
        type: 3}
    - target: {fileID: 1175553284492084692, guid: ecda8f8e1edec9f48bcf0f7163d8b11b,
        type: 3}
      propertyPath: RoomTypes.Array.data[10]
      value: 
      objectReference: {fileID: 4813932391844898952, guid: a9a6495c5daf06c489fe1aa6d7f50f15,
        type: 3}
    - target: {fileID: 1175553284492084692, guid: ecda8f8e1edec9f48bcf0f7163d8b11b,
        type: 3}
      propertyPath: RoomTypes.Array.data[11]
      value: 
      objectReference: {fileID: 5252625425652572744, guid: 5e32bca46224b4848ad74b991adf5974,
        type: 3}
    - target: {fileID: 1175553284492084692, guid: ecda8f8e1edec9f48bcf0f7163d8b11b,
        type: 3}
      propertyPath: RoomTypes.Array.data[12]
      value: 
      objectReference: {fileID: 5260081564814037831, guid: 41e301df68770294580daafb558078e7,
        type: 3}
    - target: {fileID: 1175553284492084692, guid: ecda8f8e1edec9f48bcf0f7163d8b11b,
        type: 3}
      propertyPath: RoomTypes.Array.data[13]
      value: 
      objectReference: {fileID: 3430297779692814650, guid: 1a02c46c52a939644bdb416dde273b46,
        type: 3}
    - target: {fileID: 1175553284492084692, guid: ecda8f8e1edec9f48bcf0f7163d8b11b,
        type: 3}
      propertyPath: RoomTypes.Array.data[14]
      value: 
      objectReference: {fileID: 5073199610348177653, guid: d378b1f3212727846a026f72c7334ec5,
        type: 3}
    - target: {fileID: 1175553284492084692, guid: ecda8f8e1edec9f48bcf0f7163d8b11b,
        type: 3}
      propertyPath: RoomTypes.Array.data[15]
      value: 
      objectReference: {fileID: 1413180653177385856, guid: 90f066206ba64234aaac7b5d52668ec2,
        type: 3}
    - target: {fileID: 1175553284492084692, guid: ecda8f8e1edec9f48bcf0f7163d8b11b,
        type: 3}
      propertyPath: RoomTypes.Array.data[16]
      value: 
      objectReference: {fileID: -1912077685803011951, guid: 1e65d0c6faf7a554fb47a8778c012c61,
        type: 3}
    - target: {fileID: 1175553284492084692, guid: ecda8f8e1edec9f48bcf0f7163d8b11b,
        type: 3}
      propertyPath: RoomTypes.Array.data[17]
      value: 
      objectReference: {fileID: 3480514622560163816, guid: 25870f1b966c6c24185e580f8822093d,
        type: 3}
    - target: {fileID: 1175553284492084692, guid: ecda8f8e1edec9f48bcf0f7163d8b11b,
        type: 3}
      propertyPath: RoomTypes.Array.data[18]
      value: 
      objectReference: {fileID: 7971149750827312905, guid: 43aea2c7b3a213445bba72da59a6e768,
        type: 3}
    - target: {fileID: 1175553284492084692, guid: ecda8f8e1edec9f48bcf0f7163d8b11b,
        type: 3}
      propertyPath: RoomTypes.Array.data[19]
      value: 
      objectReference: {fileID: 1843038024574494669, guid: d1eb4074a87f11d41891ffb8dc62164a,
        type: 3}
    - target: {fileID: 1175553284492084692, guid: ecda8f8e1edec9f48bcf0f7163d8b11b,
        type: 3}
      propertyPath: RoomTypes.Array.data[20]
      value: 
      objectReference: {fileID: 1847357071693676989, guid: 3996d8785c54bb44092cf0ad50aea110,
        type: 3}
    - target: {fileID: 1175553284492084692, guid: ecda8f8e1edec9f48bcf0f7163d8b11b,
        type: 3}
      propertyPath: RoomTypes.Array.data[21]
      value: 
      objectReference: {fileID: 6987401346377213026, guid: 3f92ee7e6eb2fa0408948f7a38939162,
        type: 3}
    - target: {fileID: 1175553282983894935, guid: ecda8f8e1edec9f48bcf0f7163d8b11b,
        type: 3}
      propertyPath: m_LocalPosition.x
      value: 0
      objectReference: {fileID: 0}
    - target: {fileID: 1175553282983894935, guid: ecda8f8e1edec9f48bcf0f7163d8b11b,
        type: 3}
      propertyPath: m_LocalPosition.y
      value: 0
      objectReference: {fileID: 0}
    - target: {fileID: 1175553282983894935, guid: ecda8f8e1edec9f48bcf0f7163d8b11b,
        type: 3}
      propertyPath: m_LocalPosition.z
      value: 0
      objectReference: {fileID: 0}
    - target: {fileID: 1175553284290904473, guid: ecda8f8e1edec9f48bcf0f7163d8b11b,
        type: 3}
      propertyPath: m_LocalPosition.x
      value: -0.5
      objectReference: {fileID: 0}
    - target: {fileID: 1175553284290904473, guid: ecda8f8e1edec9f48bcf0f7163d8b11b,
        type: 3}
      propertyPath: m_LocalPosition.y
      value: -0.5
      objectReference: {fileID: 0}
    - target: {fileID: 1175553284290904473, guid: ecda8f8e1edec9f48bcf0f7163d8b11b,
        type: 3}
      propertyPath: m_LocalPosition.z
      value: 1
      objectReference: {fileID: 0}
    - target: {fileID: 1175553282983894888, guid: ecda8f8e1edec9f48bcf0f7163d8b11b,
        type: 3}
      propertyPath: m_BackGroundColor.r
      value: 0
      objectReference: {fileID: 0}
    - target: {fileID: 1175553282983894888, guid: ecda8f8e1edec9f48bcf0f7163d8b11b,
        type: 3}
      propertyPath: m_BackGroundColor.g
      value: 0
      objectReference: {fileID: 0}
    - target: {fileID: 1175553282983894888, guid: ecda8f8e1edec9f48bcf0f7163d8b11b,
        type: 3}
      propertyPath: m_BackGroundColor.b
      value: 0
      objectReference: {fileID: 0}
    - target: {fileID: 1175553282983894888, guid: ecda8f8e1edec9f48bcf0f7163d8b11b,
        type: 3}
      propertyPath: orthographic size
      value: 2
      objectReference: {fileID: 0}
    - target: {fileID: 8621972541633921860, guid: ecda8f8e1edec9f48bcf0f7163d8b11b,
        type: 3}
      propertyPath: m_LocalPosition.x
      value: 0
      objectReference: {fileID: 0}
    - target: {fileID: 8621972541633921860, guid: ecda8f8e1edec9f48bcf0f7163d8b11b,
        type: 3}
      propertyPath: m_LocalPosition.y
      value: 0
      objectReference: {fileID: 0}
    - target: {fileID: 8546984429051935687, guid: ecda8f8e1edec9f48bcf0f7163d8b11b,
        type: 3}
      propertyPath: m_AnchorMin.x
      value: 1
      objectReference: {fileID: 0}
    - target: {fileID: 8546984429051935687, guid: ecda8f8e1edec9f48bcf0f7163d8b11b,
        type: 3}
      propertyPath: m_AnchorMax.x
      value: 1
      objectReference: {fileID: 0}
    - target: {fileID: 8546984429051935687, guid: ecda8f8e1edec9f48bcf0f7163d8b11b,
        type: 3}
      propertyPath: m_AnchoredPosition.x
      value: -20
      objectReference: {fileID: 0}
    - target: {fileID: 8136526427004986353, guid: ecda8f8e1edec9f48bcf0f7163d8b11b,
        type: 3}
      propertyPath: m_AnchoredPosition.y
      value: 5
      objectReference: {fileID: 0}
    - target: {fileID: 5484197977616885833, guid: ecda8f8e1edec9f48bcf0f7163d8b11b,
        type: 3}
      propertyPath: m_AnchorMax.y
      value: 0
      objectReference: {fileID: 0}
    - target: {fileID: 5484197977616885833, guid: ecda8f8e1edec9f48bcf0f7163d8b11b,
        type: 3}
      propertyPath: m_AnchorMax.x
      value: 0
      objectReference: {fileID: 0}
    - target: {fileID: 5484197977616885833, guid: ecda8f8e1edec9f48bcf0f7163d8b11b,
        type: 3}
      propertyPath: m_AnchorMin.y
      value: 0
      objectReference: {fileID: 0}
    - target: {fileID: 5351706058284669183, guid: ecda8f8e1edec9f48bcf0f7163d8b11b,
        type: 3}
      propertyPath: m_Direction
      value: 3
      objectReference: {fileID: 0}
    - target: {fileID: 5351706058284669183, guid: ecda8f8e1edec9f48bcf0f7163d8b11b,
        type: 3}
      propertyPath: m_MaxValue
      value: 50
      objectReference: {fileID: 0}
    - target: {fileID: 5351706058284669183, guid: ecda8f8e1edec9f48bcf0f7163d8b11b,
        type: 3}
      propertyPath: m_Value
      value: 2
      objectReference: {fileID: 0}
    - target: {fileID: 5351706058284669183, guid: ecda8f8e1edec9f48bcf0f7163d8b11b,
        type: 3}
      propertyPath: m_MinValue
      value: 2
      objectReference: {fileID: 0}
    - target: {fileID: 5351706058284669183, guid: ecda8f8e1edec9f48bcf0f7163d8b11b,
        type: 3}
      propertyPath: m_Interactable
      value: 1
      objectReference: {fileID: 0}
    - target: {fileID: 5351706058284669183, guid: ecda8f8e1edec9f48bcf0f7163d8b11b,
        type: 3}
      propertyPath: m_Enabled
      value: 1
      objectReference: {fileID: 0}
    - target: {fileID: 5351706058284669183, guid: ecda8f8e1edec9f48bcf0f7163d8b11b,
        type: 3}
      propertyPath: m_Navigation.m_Mode
      value: 0
      objectReference: {fileID: 0}
    - target: {fileID: 3365596702842766354, guid: ecda8f8e1edec9f48bcf0f7163d8b11b,
        type: 3}
      propertyPath: m_AnchorMax.y
      value: 0
      objectReference: {fileID: 0}
    - target: {fileID: 3365596702842766354, guid: ecda8f8e1edec9f48bcf0f7163d8b11b,
        type: 3}
      propertyPath: m_AnchorMax.x
      value: 0
      objectReference: {fileID: 0}
    - target: {fileID: 3365596702842766354, guid: ecda8f8e1edec9f48bcf0f7163d8b11b,
        type: 3}
      propertyPath: m_AnchorMin.y
      value: 0
      objectReference: {fileID: 0}
    - target: {fileID: 1175553284290904474, guid: ecda8f8e1edec9f48bcf0f7163d8b11b,
        type: 3}
      propertyPath: m_CellGap.x
      value: 0
      objectReference: {fileID: 0}
    - target: {fileID: 1175553284290904474, guid: ecda8f8e1edec9f48bcf0f7163d8b11b,
        type: 3}
      propertyPath: m_CellGap.y
      value: 0
      objectReference: {fileID: 0}
    - target: {fileID: 5551449488017428589, guid: ecda8f8e1edec9f48bcf0f7163d8b11b,
        type: 3}
      propertyPath: ObjectTilemap
      value: 
      objectReference: {fileID: 1583556261}
    - target: {fileID: 5551449488017428589, guid: ecda8f8e1edec9f48bcf0f7163d8b11b,
        type: 3}
      propertyPath: canPhase
      value: 1
      objectReference: {fileID: 0}
    - target: {fileID: 5731584932221905574, guid: ecda8f8e1edec9f48bcf0f7163d8b11b,
        type: 3}
      propertyPath: m_SortingOrder
      value: 2
      objectReference: {fileID: 0}
    m_RemovedComponents: []
  m_SourcePrefab: {fileID: 100100000, guid: ecda8f8e1edec9f48bcf0f7163d8b11b, type: 3}
